8
Initial positions.
A         2.00000        2.00000        0.00000
A         2.00000        6.00000        0.00000
A         2.00000        9.99000        0.00000
A         6.00000        2.00000        0.00000
A         6.00000        9.99000        0.00000
A         9.99000        2.00000        0.00000
A         9.99000        6.00000        0.00000
A         9.99000        9.99000        0.00000
